{
	"Psionic Tree":
	{
		"Astral Form":
		{
			"prerequisite": ["Visit Other Plane"],
			"description": "When this Discipline is activated, the psychic becomes completely immaterial. The Psychic cannot affect the 'material world' in any way, nor may the Psychic speak, except to other creatures in the Astral Plane. All of the character’s in-game possessions must be left behind with a note representing the character’s helpless body. The body may be searched or killed in their absence. This Psychic State lasts only ten (10) minutes, but can be extended by expending another state. Each state spent in this way allows another ten minutes of Astral Form. If a character runs out of time while in Astral Form, and cannot spend another state or return to their body, then they enter their ten (10) minute bleed. If they do not return to their body before the bleed is complete, they die."
		},
		"Avoid":
		{
			"prerequisite": ["Project Emotion"],
			"description": "When this Discipline is activated on two subjects, (either two other characters touched at the same time, or the Psychic and another touched) the two characters involved become completely unaware of the other’s existence for the next ten (10) minutes. They cannot interact with each other, intentionally or even accidentally. The characters will have no knowledge of each other and must not affect the other in any way. If either character uses the skill Psychic Block, the Avoid will not take effect on either character."
		},
		"Bless":
		{
			"prerequisite": ["Focus Power", "Curse"],
			"description": "When this Discipline is used on a character, a skill must be specified for the effect (i.e. Longsword, Awareness, Smithing, etc.). The target player must have at minimum the first level of the skill being Blessed. For the next ten (10) minutes, the skill will act as if it was one level higher. Blesses may be stacked, i.e. used more than one time on a single skill. Bless must be granted to the subject by touch. Bless will not allows a character to go beyond a maximum normally available level in a skill. For instance, no one could be Blessed to a Tier Six Awareness. The rank of skill gained by Bless cannot be trained, even through Knowledge Conduit or similar means."
		},
		"Block Pain":
		{
			"prerequisite": ["Trance"],
			"description": "When the Psychic activates this Discipline, they gain ten (10) points of Health that will last only a minute for each State spent. If damaged in that time, the temporary Health Points will be lost first. These temporary points may not be used for Empathic Healing, or any other form of transfer. A psychic with this ability may activate it when they hit zero (0) Health due to damage."
		},
		"Compel Truth":
		{
			"prerequisite": ["Project Emotion"],
			"description": "When this Discipline is activated on another player, the subject cannot exaggerate, lie or deny the truth in any other way to the Psychic for ten (10) minutes. The subject does not have to speak, but if they do, they must tell the exact truth. The truthfulness also extends to gesturing, writing, and any other form of communication."
		},
		"Curse":
		{
			"prerequisite": ["Psychic Imprint", "Bless"],
			"description": "This Discipline acts like Bless, but it subtracts from the specified skill; Curse lasts until a Psychic removes the affliction, the Cursing party dies or until the Cursing party has lost consciousness. This effect will not last more than one day. In order to maintain a Curse, the psychic may not meditate to regain the Psychic State used for the Curse. For example, if the Psychic has six states but is maintaining two Curses, the Psychic may only use up to four more Psychic States without releasing the Curses. Curses must be applied on the subject by touch. If a prerequisite skill is cursed the character will still have access to the subsequent skills in that line."
		},
		"Dematerialize":
		{
			"prerequisite": ["Astral Form"],
			"description": "Allows a character, when using Astral Form or Visit Other Plane to expend a second state and bring their physical body with them. This negates the need to leave behind a representation of the character’s body or possessions. This costs an extra State for each State spent on Astral Form, or Visit Other Plane, and lasts as long as the underlying State."
		},
		"Dowse":
		{
			"prerequisite": ["Psychic"],
			"description": "When this Discipline is activated, it allows the Psychic to be aware for ten (10) minutes of any single item in the possession of another person whom they touch. When a person is touched, they must answer truthfully (out of game) whether or not the item specified is in their possession. They may touch as many people as they can in ten minutes, but must ask for the same information from all of them."
		},
		"":
		{
			"prerequisite": [""],
			"description": "TODO"
		}
	}
}