[
	{
		"name":"The Earth Will Heal You 'x' Points", 
		"tier":1, 
		"element":"Earth",
		"description":"The 'x' in this incant is the total tiers of Earth Power and Essence and/or Void Power (if any) possessed by the caster. The recipient of this spell will regain the number of lost health points stated in the incant up to their original health score. This spell will only work on living creatures.", 
		"effect":"The wounds of the subject close and heal."
	},
	{
		"name":"The Earth Will Throw You",
		"tier":1,
		"element":"Earth",
		"description":"When struck by this spell, the recipient must fall to the ground, lying on their front. After falling to the ground, the player can get up and continue play as normal.",
		"effect":"The ground momentarily changes shape to trip the character."
	},
	{
		"name":"The Earth Will Mend Your 'x'",
		"tier":1,
		"element":"Earth",
		"description":"The 'x' in this incant is an object in need of simple structural repair. The item must be made of wood, metal, stone, clay, or some other substance from the earth. It will repair up to one crack or break per tier of Earth power the caster possesses. On armour, this will repair 2 points of armour per Tier of the caster. This spell does not stack with Tiers of Essence or Void power.",
		"effect":"The cracks and breaks re-attach themselves, dents straighten out, and the damage repairs itself almost instantly."
	},
	{
		"name":"The Air Will Spin You 'x' Times",
		"tier":1,
		"element":"Air",
		"description":"The 'x' in this spell is the total tiers of power that the caster has in Air, Essence and Void. When hit by this spell, the subject must immediately turn 360 degrees as many times as indicated by the spell. While spinning, the subject cannot attack or cast spells.",
		"effect":"The subject is caught up in a small cyclone of wind that surrounds the body."
	},
	{
		"name":"The Air Will Disarm Your 'x'",
		"tier":1,
		"element":"Air",
		"description":"When hit by this spell, the subject must drop whatever named item they were carrying in their hands (the 'x' in the incant). If the spell caster names an item that the subject was not carrying in their hands, the spell has no effect. Dropping the item includes letting go of the object and allowing it to fall; if it is tied on, glued to the hand or otherwise secured then it will not fall and the hand may close on the item again. Even if attached the spell still buffets the item with wind and a momentary disruption must be mimed.",
		"effect":"A sudden gust of wind twists the object out of the character’s hand."
	},
	{
		"name":"The Air Will Allow Me Breath, 'x' Minutes",
		"tier":1,
		"element":"Air",
		"description":"For the duration of this spell, the target does not need to breath. This means they cannot be drowned, suffocated, but will not prevent alchemical gas cloud effects.",
		"effect":"During the spell, small clouds continually swirl around the nose and mouth of the target.",
		"timed":true
	},
	{
		"name":"With Fire I Strike You 'x' Points",
		"tier":1,
		"element":"Fire",
		"description":"The 'x' in this incantation is the total number of tiers of power that the caster has in Fire, Essence and Void. The recipient of this spell takes the stated amount of damage.",
		"effect":"In-Game Effect: A burst of flame strikes where the mana lands."
	},
	{
		"name":"With Fire I Light Your Way",
		"tier":1,
		"element":"Fire",
		"description":"This spell, when cast, allows the subject to use a red filtered flashlight as a magical light. The flashlight in this case is not considered to be an object and as such cannot be given to another character. This spell will last until the next morning or until the flashlight is turned off for any reason.",
		"effect":"The Mage causes a red light to appear."
	},
	{
		"name":"With Fire I Fuel the Flames",
		"tier":1,
		"element":"Fire",
		"description":"This spell is used to speed up the burning time of any flammable item. It will work on forges, fuels, or any other flammable substance. Once cast, it reduces the time a flame takes to burn an item by ten minutes, to a minimum of one minute. This will reduce the warm up time for a forge to one minute as well.",
		"effect":"The caster causes the flames to glow brightly and enlarge for a moment, drastically increasing the heat output."
	},
	{
		"name":"With Water I Strike You, 'x' Points",
		"tier":1,
		"element":"Water",
		"description":"The 'x' in this incant is the total number of tiers of power that the caster has in Water, Void and Essence. Whoever is struck by this spell takes the stated amount of damage. A damage descriptor of either 'with lightning' or 'with ice' may be appended to this incant before the actual damage call if desired.",
		"effect":"A bolt of lightning or ice bursts from the caster’s hand, striking where the mana landed."
	},
	{
		"name":"With Water I Purify This Food",
		"tier":1,
		"element":"Water",
		"description":"When cast, this spell will remove all alchemical substances and poisons from any one container of food or drink touched by the spell.",
		"effect":"There is no visible effect but any poisons etc. are gone."
	},
	{
		"name":"With Water I Douse This Fire",
		"tier":1,
		"element":"Water",
		"description":"This spell allows a caster to extinguish any flame or fire, up to the size of a small camp fire. Once cast, the caster touches the mana to the flame and extinguishes the source instantly. This also immediately cools the fire to a level where it can be comfortably touched. This is a touch range spell, and the mana may NOT be thrown.",
		"effect":"The fire or flame sizzles and steams, as if water were poured on it. The fire goes out instantly, and immediately cools."
	},
	{
		"name":"The Power Of Essence Heals You 'x' Points",
		"tier":1,
		"element":"Essence",
		"description":"The 'x' in this incant is total tiers of essence power possessed by the caster multiplied by five (5). The subject of this spell will regain the number of lost Health points as stated in the incant, up to their original Health score.",
		"effect":"A bolt of positive energy strikes the target, closing wounds and healing damage."
	},
	{
		"name":"The Power of Essence Purifies You of 'x'",
		"tier":1,
		"element":"Essence",
		"description":"The 'x' in this incant refers to any one specific alchemical or other effect (e.g. disease or natural poison) that the caster wishes to remove from the subject. The spell will remove the specified taint without affecting other alchemical effects.",
		"effect":"A bolt of positive energy strikes the subject. No other effects are visible unless the removal of the impurity is obvious."
	},
	{
		"name":"The Power of Void Strikes You, 'x' Points",
		"tier":1,
		"element":"Void",
		"description":"The 'x' in the incant is the number tiers of power the caster possesses in Void multiplied by five (5). Whoever is struck by this spell takes the stated amount of damage.",
		"effect":"A bolt of negative energy flies from the hand of the mage and strikes where the mana lands."
	},
	{
		"name":"The Power of Void Infects You",
		"tier":1,
		"element":"Void",
		"description":"This spell acts as a malign enchantment. It will act as the spell 'The Power of Void Protects You' but only towards curative magics such as healings, Untaint and purifications. This spell is unique in that, once enchanted, the mana cannot be reformed (see Awareness 3).",
		"effect":"The healing spell is swallowed by a burst of negative energy before it strikes the target."
	}
]